:Base d7dbd.hlp>main
:Title Developing Database Applications
; 
1 Developing Database Applications
2 Designing database applications
3 Designing database applications: Overview=dbdesigndesigningdatabaseapplications
3 Using databases
4 Using databases=dbdesignusingdatabases
4 Types of databases=dbdesigntypesofdatabases
4 Database security=dbdesigndatabasesecurity
4 Transactions=dbdesigntransactions
4 Referential integrity, stored procedures, and triggers=dbdesignreferentialintegritystoredproceduresandtriggers
3 Database architecture
4 Database architecture=dbdesigndatabasearchitecture
4 Connecting directly to a database server=dbdesignconnectingdirectlytoadatabaseserver
4 Using a dedicated file on disk=dbdesignusingadedicatedfileondisk
4 Connecting to another dataset=dbdesignconnectingtoanotherdataset
4 Connecting a client dataset to another dataset in the same application=dbdesignconnectingaclientdatasettoanotherdatasetinthesameapplication
4 Using a multi-tiered architecture=dbdesignusingamultitieredarchitecture
3 Combining approaches=dbdesigncombiningapproaches
3 Designing the user interface
4 Designing the user interface=dbdesigndesigningtheuserinterface
4 Analyzing data=dbdesignanalyzingdata
4 Writing reports=dbdesignwritingreports
2 Using data controls
3 Using data controls=fhxr13484
3 Using common data control features=12ctrlsusingcommondatacontrolfeatures
3 Associating a data control with a dataset=12ctrlsassociatingadatacontrolwithadataset
3 Changing the associated dataset at runtime=12ctrlschangingtheassociateddatasetatruntime
3 Enabling and disabling the data source=12ctrlsenablinganddisablingthedatasource
3 Responding to changes mediated by the data source=12ctrlsrespondingtochangesmediatedbythedatasource
3 Editing and updating data=12ctrlseditingandupdatingdata
3 Enabling editing in controls on user entry=12ctrlsenablingeditingincontrolsonuserentry
3 Editing data in a control=12ctrlseditingdatainacontrol
3 Disabling and enabling data display=12ctrlsdisablingandenablingdatadisplay
3 Refreshing data=12ctrlsrefreshingdata
3 Enabling mouse, keyboard, and timer events=12ctrlsenablingmousekeyboardandtimerevents
3 Choosing how to organize the data=12ctrlschoosinghowtoorganizethedata
4 Displaying a single record=12ctrlsdisplayingasinglerecord
3 Displaying data as labels=12ctrlsdisplayingdataaslabels
3 Displaying and editing fields in an edit box=12ctrlsdisplayingandeditingfieldsinaneditbox
3 Displaying and editing text in a memo control=12ctrlsdisplayingandeditingtextinamemocontrol
3 Displaying and editing text in a rich edit memo control=12ctrlsdisplayingandeditingtextinaricheditmemocontrol
3 Displaying and editing graphics fields in an image control=12ctrlsdisplayingandeditinggraphicsfieldsinanimagecontrol
3 Displaying and editing data in list and combo boxes=12ctrlsdisplayingandeditingdatainlistandcomboboxes
3 Using TDBListBox and TDBComboBox=12ctrlsusingtdblistboxandtdbcombobox
3 Displaying and editing data in lookup list and combo boxes=12ctrlsdisplayingandeditingdatainlookuplistandcomboboxes
3 Handling Boolean field values with check boxes=12ctrlshandlingbooleanfieldvalueswithcheckboxes
3 Restricting field values with radio controls=12ctrlsrestrictingfieldvalueswithradiocontrols
4 Displaying multiple records=12ctrlsdisplayingmultiplerecords
3 Viewing and editing data with TDBGrid=12ctrlsviewingandeditingdatawithtdbgrid
3 Using a grid control in its default state=12ctrlsusingagridcontrolinitsdefaultstate
3 Creating a customized grid=12ctrlscreatingacustomizedgrid
3 Creating persistent columns=12ctrlscreatingpersistentcolumns
3 Deleting persistent columns=12ctrlsdeletingpersistentcolumns
3 Arranging the order of persistent columns=12ctrlsarrangingtheorderofpersistentcolumns
3 Setting column properties at design time=12ctrlssettingcolumnpropertiesatdesigntime
3 Defining a lookup list column=12ctrlsdefiningalookuplistcolumn
3 Putting a button in a column=12ctrlsputtingabuttoninacolumn
3 Restoring default values to a column=12ctrlsrestoringdefaultvaluestoacolumn
3 Displaying ADT and array fields=12ctrlsdisplayingadtandarrayfields
3 Setting grid options=12ctrlssettinggridoptions
3 Editing in the grid=12ctrlseditinginthegrid
3 Controlling grid drawing=12ctrlscontrollinggriddrawing
3 Responding to user actions at runtime=12ctrlsrespondingtouseractionsatruntime
3 Creating a grid that contains other data-aware controls=12ctrlscreatingagridthatcontainsotherdataawarecontrols
3 Navigating and manipulating records=dgfhxr26353
3 Choosing navigator buttons to display=12ctrlschoosingnavigatorbuttonstodisplay
3 Displaying fly-over help=12ctrlsdisplayingflyoverhelp
3 Using a single navigator for multiple datasets=12ctrlsusingasinglenavigatorformultipledatasets
2 Creating reports with Rave Reports
3 Rave Reports: Overview=ravereportsoverview
3 Getting started with Rave Reports=gettingstarted
3 Rave Visual Designer=ravevisualdesigner
3 Rave component overview=componentoverview
3 Getting more information=gettingmoreinformation
2 Connecting to databases
3 Connecting to databases: Overview=fhxr13143
3 Using implicit connections=45connecusingimplicitconnections
3 Controlling connections=45conneccontrollingconnections
3 Connecting to a database server=fhxr34204
3 Disconnecting from a database server=45connecdisconnectingfromadatabaseserver
3 Controlling server login=fhxr27148
3 Managing transactions=45connecmanagingtransactions
3 Specifying the transaction isolation level=45connecspecifyingthetransactionisolationlevel
3 Sending commands to the server=45connecsendingcommandstotheserver
3 Working with associated datasets=45connecworkingwithassociateddatasets
3 Obtaining metadata=45connecobtainingmetadata
2 Understanding datasets
3 Understanding datasets: Overview=fhxr30623
3 Using TDataSet descendants=5datasetusingtdatasetdescendants
3 Determining dataset states=fhxr35411
3 Opening and closing datasets=5datasetopeningandclosingdatasets
3 Navigating datasets=fhxr37060
3 Using the First and Last methods=5datasetusingthefirstandlastmethods
3 Using the Next and Prior methods=5datasetusingthenextandpriormethods
3 Using the MoveBy method=5datasetusingthemovebymethod
3 Using the Eof and Bof properties=5datasetusingtheeofandbofproperties
3 Marking and returning to records=5datasetmarkingandreturningtorecords
3 Searching datasets=fhxr11247
3 Using Locate=5datasetusinglocate
3 Using Lookup=5datasetusinglookup
3 Displaying and editing a subset of data using filters=fhxr26364
3 Enabling and disabling filtering=5datasetenablinganddisablingfiltering
3 Creating filters=5datasetcreatingfilters
3 Setting the Filter property=5datasetsettingthefilterproperty
3 Writing an OnFilterRecord event handler=fhxr40909
3 Setting filter options=5datasetsettingfilteroptions
3 Navigating records in a filtered dataset=5datasetnavigatingrecordsinafiltereddataset
3 Modifying data=dgfhxr19020
3 Editing records=5dataseteditingrecords
3 Adding new records=5datasetaddingnewrecords
3 Deleting records=5datasetdeletingrecords
3 Posting data=5datasetpostingdata
3 Canceling changes=5datasetcancelingchanges
3 Modifying entire records=5datasetmodifyingentirerecords
3 Calculating fields=5datasetcalculatingfields
3 Types of datasets=typesofdatasets
3 Using table type datasets=5datasetusingtabletypedatasets
3 Sorting records with indexes=5datasetsortingrecordswithindexes
3 ObtainingInformationAboutIndexes=5datasetobtaininginformationaboutindexes
3 Specifying an index with IndexName=fhxr19334
3 Creating an index with IndexFieldNames=5datasetcreatinganindexwithindexfieldnames
3 Using Indexes to search for records=5datasetusingindexestosearchforrecords
3 Executing a search with Goto methods=5datasetexecutingasearchwithgotomethods
3 Executing a search with Find methods=5datasetexecutingasearchwithfindmethods
3 Specifying the current record after a successful search=5datasetspecifyingthecurrentrecordafterasuccessfulsearch
3 Searching on partial keys=5datasetsearchingonpartialkeys
3 Searching on partial keys=5datasetrepeatingorextendingasearch
3 Limiting records with ranges=5datasetlimitingrecordswithranges
3 Understanding the differences between ranges and filters=5datasetunderstandingthedifferencesbetweenrangesandfilters
3 Specifying ranges=5datasetspecifyingranges
3 Modifying a range=5datasetmodifyingarange
3 Applying or canceling a range=5datasetapplyingorcancelingarange
3 Creating master/detail relationships=5datasetcreatingmasterdetailrelationships
3 Making the table a detail of another dataset=5datasetmakingthetableadetailofanotherdataset
3 Using nested detail tables=5datasetusingnesteddetailtables
3 Controlling Read/write access to tables=5datasetcontrollingreadwriteaccesstotables
3 Creating and deleting tables=5datasetcreatinganddeletingtables
3 Emptying tables=5datasetemptyingtables
3 Synchronizing tables=5datasetsynchronizingtables
3 Using query-type datasets=5datasetusingquerytypedatasets
3 Specifying the query=5datasetspecifyingthequery
3 Using parameters in queries=5datasetusingparametersinqueries
3 Supplying parameters at design time=5datassetsupplyingparametersatdesigntime
3 Supplying parameters at runtime=5datassetsupplyingparametersatruntime
3 Establishing master/detail relationships using parameters=5datasetestablishingmasterdetailrelationshipsusingparameters
3 Preparing queries=5datasetpreparingqueries
3 Executing queries that don't return a result set=5datasetexecutingqueriesthatdontreturnaresultset
3 Using unidirectional result sets=5datasetusingunidirectionalresultsets
3 Using stored procedure-type datasets=5datasetusingstoredproceduretypedatasets
3 Working with stored procedure parameters=5datasetworkingwithstoredprocedureparameters
3 Preparing stored procedures=5datasetpreparingstoredprocedures
3 Executing stored procedures that don't return a result set=5datasetexecutingstoredproceduresthatdontreturnaresultset
3 Fetching multiple result sets=5datasetfetchingmultipleresultsets
2 Working with field components
3 Working with field components: Overview=fhxr40066
3 Dynamic field components=fhxr40028
3 Persistent field components=7fieldspersistentfieldcomponents
3 Creating persistent fields=fhxr39165
3 Arranging persistent fields=7fieldsarrangingpersistentfields
3 Defining new persistent fields=7fieldsdefiningnewpersistentfields
3 Defining a data field=7fieldsdefiningadatafield
3 Defining a calculated field=fhxr25728
3 Programming a calculated field=fhxr14702
3 Defining a lookup field=fhxr11410
3 Defining an aggregate Field=7fieldsdefiningaggregatefields
3 Deleting persistent field components=7fieldsdeletingpersistentfieldcomponents
3 Setting persistent field properties and events=fhxr15954
3 Setting display and edit properties at design time=7fieldssettingdisplayandeditpropertiesatdesigntime
3 Setting field component properties at runtime=fhxr35066
3 Creating attribute sets for field components=fhxr13122
3 Associating attribute sets with field components=7fieldsassociatingattributesetswithfieldcomponents
3 Removing attribute associations=7fieldsremovingattributeassociations
3 Controlling and masking user input=fhxr40578
3 Using default formatting for numeric, date, and time fields=fhxr28215
3 Handling events=fhxr19308
3 Working with field component methods at runtime=7fieldsworkingwithfieldcomponentmethodsatruntime
3 Displaying, converting, and accessing field values=7fieldsdisplayingconvertingandaccessingfieldvalues
3 Displaying field component values in standard controls=7fieldsdisplayingfieldcomponentvaluesinstandardcontrols
3 Converting field values=fhxr39242
3 Accessing field values with the default dataset property=fhxr20792
3 Accessing field values with a dataset's Fields property=7fieldsaccessingfieldvalueswithadataset'sfieldsproperty
3 Accessing field values with a dataset's FieldByName method=7fieldsaccessingfieldvalueswithadataset'sfieldbynamemethod
3 Setting a default value for a field=7fieldssettingadefaultvalueforafield
3 Working with constraints=7fieldsworkingwithconstraints
3 Creating a custom constraint=7fieldscreatingacustomconstraint
3 Using server constraints=7fieldsusingserverconstraints
3 Using object fields=7fieldsusingobjectfields
3 Working with ADT fields=7fieldsworkingwithadtfields
3 Working with Array fields=7fieldsworkingwitharrayfields
3 Working with DataSet fields=7fieldsworkingwithdatasetfields
3 Working with Reference fields=7fieldsworkingwithreferencefields
2 Using the Borland Database Engine
3 Using the Borland Database Engine=bdeusingtheborlanddatabaseengine
3 BDE-based architecture=bdebdebasedarchitecture
3 Using BDE-enabled datasets
4 Using BDE-enabled datasets=fhxr20965
4 Associating a dataset with database and session connections=bdeassociatingadatasetwithdatabaseandsessionconnections
4 Caching BLOBs=bdecachingblobs
4 Working with BDE handle properties=bdeobtainingabdehandle
4 Using TTable=bdeusingttable
4 Specifying the table type for local tables=bdespecifyingthetabletypeforlocaltables
4 Controlling read/write access to local tables=bdecontrollingreadwriteaccesstoatable
4 Specifying a dBASE index file=bdespecifyingadbaseindexfile
4 Renaming a table=bderenamingatable
4 Importing data from another table=bdeimportingdatafromanothertable
4 Using TQuery=bdeusingtquery
4 Creating heterogenous queries=fhxr27506
4 Obtaining an editable result set=fhxr27507
4 Updating a read-only result set=fhxr36873b
4 Using TStoredProc=bdeusingtstoredproc
4 Binding parameters=bdebindingparameters
4 Working with Oracle overloaded stored procedures=fhxr42072
3 Connecting to databases with TDatabase
4 Connecting to databases with TDatabase=bdeconnectingtodatabaseswithtdatabase
4 Associating a database component with a session=bdeassociatingadatabasecomponentwithasession
4 Understanding database and session component interactions=bdeunderstandingdatabaseandsessioncomponentinteractions
4 Identifying the database=fhxr35734
4 Setting BDE alias parameters=fhxr34260
4 Identifying the database=bdeopeningaconnectionusingtdatabase
4 Using database components in data modules=bdeusingdatabasecomponentsindatamodules
3 Managing database sessions
4 Managing database sessions=fhxr36739
4 Activating a session=bdeactivatingasession
4 Specifying default database connection behavior=fhxr24187
4 Managing database connections=fhxr38230
4 Opening database connections=bdeopeningdatabaseconnections
4 Closing database connections=fhxr10594
4 Dropping inactive database connections=fhxr24944
4 Searching for a database connection=bdesearchingforadatabaseconnection
4 Iterating through a session's database components=bdeiteratingthroughasessionsdatabasecomponents
4 Working with password-protected Paradox and dBASE tables=fhxr33374
4 Specifying Paradox directory locations=bdespecifyingparadoxdirectorylocations
4 Working with BDE aliases=fhxr12212
4 Retrieving information about a session=fhxr10206
4 Creating additional sessions=bdecreatingadditionalsessions
4 Naming a session=fhxr16841
4 Managing multiple sessions=fhxr21262
3 Using transactions with the BDE
4 Using transactions with the BDE=bdeusingtransactionswiththebde
4 Using passthrough SQL=bdeusingpassthroughsql
4 Using local transactions=bdeusinglocaltransactions
3 Using the BDE to cache updates
4 Using the BDE to cache updates=bdeusingthebdetocacheupdates
4 Enabling BDE-based cached updates=bdeenablingbdebasedcachedupdates
4 Applying BDE-based cached updates=fhxr14681
4 Applying cached updates using a database=bdeapplyingcachedupdatesusingadatabase
4 Applying cached updates with dataset component methods=fhxr22547
4 Creating an OnUpdateRecord event handler=fhxr20141
4 Handling cached update errors=fhxr34546
4 Using update objects to update a dataset=fhxr18861
4 Creating SQL statements for update components=fhxr24361
4 Using the Update SQL editor=bdeusingtheupdatesqleditor
4 Understanding parameter substitution in update SQL statements=bdeunderstandingparametersubstitutioningeneratedsqlstatements
4 Composing update SQL statements=bdecomposingupdatesqlstatements
3 Using multiple update objects=bdeusingmultipleupdateobjects
4 Executing the SQL statements=bdeexecutingthesqlstatements
4 Calling the Apply method=bdecallingtheapplymethod
3 Executing an update statement=bdeexecutinganupdatestatement
4 Using an update component's Query property=bdeaccessinganupdatecomponent'squeryproperty
3 Using TBatchMove
4 Using TBatchMove=fhxr18700
4 Creating a batch move component=bdecreatingabatchmovecomponent
4 Specifying a batch move mode=fhxr17584
4 Mapping data types=fhxr37268
4 Executing a batch move=bdeexecutingabatchmove
4 Handling batch move errors=fhxr26007
3 The Data Dictionary=bdethedatadictionary
3 Tools for working with the BDE=bdetoolsforworkingwiththebde
2 Working with ADO components
3 Working with ADO components=adoworkingwithadocomponents
3 Overview of ADO components=adooverviewofadocomponents
3 Connecting to ADO data stores=adoconnectingtoadodatastores
3 Connecting to a data store using TADOConnection=adoconnectingtoadatastore
3 Accessing the connection object=adoaccessingtheconnectionobject
3 Fine-tuning a connection=adofinetuningaconnection
3 Forcing asynchronous connections=adoforcingasynchronousconnections
3 Controlling timeouts=adocontrollingtimeouts
3 Indicating the types of operations the connection supports=adoindicatingthetypesofoperationstheconnectionsupports
3 Specifying whether the connection automatically initiates transactions=adospecifyingwhethertheconnectionautomaticallyinitiatestransactions
3 Accessing the connection's datasets=adoaccessingtheconnectionscommands
3 ADO connection events=adoadoconnectionevents
3 Using ADO datasets=adousingadodatasets
3 Connecting an ADO dataset to a data store=adoconnectingtoadatastoreds
3 Working with record sets=adoworkingwithrecordsets
3 Filtering records based on bookmarks=adofilteringrecordsbasedonbookmarks
3 Fetching records asynchronously=adofetchingrecordsasynchronously
3 Using batch updates=adousingbatchupdates
3 Opening the dataset in batch update mode=adoopeningthedatasetinbatchupdatemode
3 Inspecting the update status of individual rows=adoinspectingtheupdatestatusofindividualrows
3 Filtering multiple rows based on update status=adofilteringmultplerowsbasedonupdatestatus
3 Applying the batch updates to base tables=adoapplyingthebatchupdatestobasetables
3 Canceling batch updates=adocancelingbatchupdates
3 Loading data from and saving data to files=adoloadingdatafromandsavingdatatofiles
3 Using TADODataSet=adousingtadodataset
3 Using Command objects=adousingcommandobjects
3 Specifying the command=adospecifyingthecommand
3 Using the Execute method=adousingtheexecutemethod
3 Canceling commands=adocancellingcommands
3 Retrieving result sets with commands=adoretrievingresultsetswithcommands
3 Handling command parameters=adohandlingcommandparameters
2 Using unidirectional datasets
3 Using unidirectional datasets=uniusingunidirectionaldatasets
3 Types of unidirectional datasets=unitypesofunidirectionaldatasets
3 Connecting to the database server=uniconnectingtothedatabaseserver
3 Setting up TSQLConnection=unisettinguptsqlconnection
3 Specifying what data to display=unispecifyingwhatdatatodisplay
3 Representing the results of a query=unirepresentingtheresultsofaquery
3 Representing the records in a table=unirepresentingtherecordsinatable
3 Representing the results of a stored procedure=unirepresentingtheresultsofastoredprocedure
3 Fetching the data=unifetchingthedata
3 Executing commands that do not return records=uniexecutingcommandsthatdonotreturnrecords
3 Specifying the command to execute=unispecifyingthecommandtoexecute
3 Executing the command=uniexecutingthecommand
3 Creating and modifying server metadata=unicreatingandmodifyingservermetadata
3 Setting up master/detail linked cursors=unisettingupmasterdetailrelationships
3 Accessing schema information=uniaccessingschemainformation
3 Fetching metadata into a unidirectional dataset=unifetchingmetadataintoaunidirectionaldataset
3 The structure of metadata datasets=uniconnecthestructureofmetadatadatasets
3 Debugging dbExpress applications=unidebuggingdbexpressapplications
2 Using client datasets
3 Using client datasets: Overview=fhxr30623b
3 Working with data using a client dataset=5ds3workingwithdatausingaclientdataset
3 Navigating data in client datasets=5ds3navigatingthroughdata
3 Limiting what records appear=5ds3limitingwhatrecordsappear
3 Editing data=5ds3editingdata
3 Undoing changes=5ds3undoingchanges
3 Saving changes=5ds3savingchanges
3 Constraining data values=5ds3constrainingdatavalues
3 Sorting and indexing=5ds3sortingandindexing
3 Adding a new index=5ds3addinganewindex
3 Deleting and switching indexes=5ds3deletingandswitchingindexes
3 Using indexes to group data=5ds3usingindexestogroupdata
3 Representing calculated values=5ds3representingcalculatedvalues
3 Using internally calculated fields in client datasets=5ds3usinginternallycalculatedfieldsinclientdatasets
3 Using maintained aggregates=5ds3usingmaintainedaggregates
3 Specifying aggregates=5ds3specifyingaggregates
3 Aggregating over groups of records=5ds3aggregatingovergroupsofrecords
3 Obtaining aggregate values=5ds3obtainingaggregatevalues
3 Copying data from another dataset=5ds3copyingdatafromanotherdataset
3 Assigning data directly=fhxr18643
3 Cloning a client dataset cursor=5ds3workingwithanotherviewofadataset
3 Adding application-specific information to the data=5ds3addingapplicationspecificinformationtothedata
3 Using a client dataset to cache updates=5ds3usingaclientdatasettocacheupdates
3 Overview of using cached updates=5ds3overviewofusingcachedupdates
3 Choosing the type of dataset for caching updates=5ds3choosingthetypeofdatasetforcachingupdates
3 Indicating what records are modified=5ds3indicatingwhatrecordsaremodified
3 Updating records=5ds3updatingrecords
3 Applying updates=5ds3applyingupdates
3 Intervening as updates are applied=5ds3interveningasupdatesareapplied
3 Reconciling update errors=dgfhxr24303
3 Using a client dataset with a provider=5ds3usingaclientdatasetwithadataprovider
3 Specifying a provider=5ds3specifyingadataprovider
3 Requesting data from the source dataset or document=5ds3requestingdatafromthesourcedataset
3 Getting parameters from the application server=5ds3gettingparametersfromthesourcedataset
3 Passing parameters to the source dataset=5ds3passingparameterstothesourcedataset
3 Sending query or stored procedure parameters=5ds3sendingqueryorstoredprocedureparameters
3 Limiting records with parameters=5ds3limitingrecordswithparameters
3 Handling constraints from the server=5ds3handlingconstraintsfromtheserver
3 Refreshing records=5ds3refreshingrecords
3 Communicating with providers using custom events=5ds3communicatingwithprovidersusingcustomevents
3 Overriding the dataset on the application server=5ds3overridingthesourcedataset
3 Using a client dataset with file-based data=5ds3usingaclientdatasetwithfilebaseddata
3 Creating a new dataset=5ds3creatinganewdataset
3 Loading data from a file or stream=fhxr20468
3 Merging changes into Data=5ds3mergingchangesintodata
3 Saving data to a file or stream=fhxr26037
3 Using a simple dataset=5ds3usingasimpledataset
3 When to use TSimpleDataSet=5ds3whentousetsimpledataset
3 Setting up a simple dataset=5ds3settingupasimpledataset
2 Using provider components
3 Using provider components=providerusingprovidercomponents
3 Determining the source of data=providerdeterminingthesourceofdata
3 Communicating with the client dataset=providercommunicatingwiththeclientdataset
3 Choosing how to apply updates using a dataset provider=providerchoosinghowtoapplyupdates
3 Controlling what information is included in data packets=providercontrollingwhatinformationisincludedindatapackets
3 Specifying what fields appear in data packets=providerspecifyingwhatfieldsappearindatapackets
3 Setting options that influence the data packets=providersettingoptionsthatinfluencethedatapackets
3 Adding custom information to data packets=provideraddingcustominformationtodatapackets
3 Responding to client data requests=providerrespondingtoclientdatarequests
3 Responding to client update requests=fhxr11481
3 Editing delta packets before updating the database=providereditingdeltapacketsbeforeupdatingthedatabase
3 Influencing how updates are applied=providerinfluencinghowupdatesareapplied
3 Screening individual updates=providerscreeningindividualupdates
3 Resolving update errors on the provider=providerresolvingupdateerrorsontheprovider
3 Applying updates to datasets that do not represent a single table=providerapplyingupdatestodatasetsthatdonotrepresentasingletable
3 Responding to client-generated events=providerrespondingtoclientgeneratedevents
3 Handling server constraints=providerhandlingserverconstraints
